<svg viewBox="0 0 36 36" xmlns="http://www.w3.org/2000/svg">
  <path
    fill="currentColor" fill-rule="nonzero" opacity=".5"
    d="M18 0a18 18 0 1 0 0 36 18 18 0 0 0 0-36zm0 32.52a14.51 14.51 0 1 1 0-29.03 14.51 14.51 0 0 1 0 29.03zm7.39-19.03L20.87 18l4.52 4.51c.34.35.34.9 0 1.24l-1.64 1.64a.87.87 0 0 1-1.24 0L18 20.87l-4.51 4.52a.87.87 0 0 1-1.24 0l-1.64-1.64a.87.87 0 0 1 0-1.24L15.13 18l-4.52-4.51a.87.87 0 0 1 0-1.24l1.64-1.64a.87.87 0 0 1 1.24 0L18 15.13l4.51-4.52a.87.87 0 0 1 1.24 0l1.64 1.64c.34.34.34.9 0 1.24z"
  />
</svg>
